{
    "response": {
        "match_id": 123456,
        "user_team_id": 1,
        "team_player_detail": [
            {
                "player_id": 1,
                "Player_name": "Rohit Sharma",
                "thumb_url": "https://fabtrio.s3.ap-south-1.amazonaws.com/team/1583143603776.png",
                "is_start_player": 0,
                "total_points": 128,
                "popularity": 60
            },
            {
                "player_id": 2,
                "Player_name": "Virat Kohli",
                "thumb_url": "https://fabtrio.s3.ap-south-1.amazonaws.com/team/1583143603776.png",
                "is_start_player": 0,
                "total_points": 110,
                "popularity": 80
            },
            {
                "player_id": 3,
                "Player_name": "KL Rahul",
                "is_start_player": 1,
                "thumb_url": "https://fabtrio.s3.ap-south-1.amazonaws.com/team/1583143603776.png",
                "total_points": 85,
                "popularity": 40
            }
        ],
        "trump_card": {
            "trump_card_id": 1,
            "trump_card_name": "Best Bowler"
        },
        "total_points": 200,
        "current_standing": 8
    }
}